{
	"contacts": [
		{
			"country": "Switzerland",
			"countryCode": "CH",
			"languageCode": "DE",
			"market": "CH",
			"name": "Biral AG",
			"address1": "S\u00FCdstrasse 10",
			"address2": "CH-3110 M\u00FCnsingen",
			"contactNumber": "+41 31 720 90 00",
			"emailAddress": "info@biral.ch",
			"website": "https://www.biral.ch/"
		},
		{
			"country": "Germany",
			"countryCode": "DE",
			"languageCode": "DE",
			"market": "DE",
			"name": "Biral GmbH",
			"address1": "Kesselsgracht 7a",
			"address2": "52146 W\u00FCrselen",
			"contactNumber": "+49 2405 408 070",
			"emailAddress": "info@biral.de",
			"website": "https://www.biral.de/"
		},
		{
			"country": "Austria",
			"countryCode": "AT",
			"languageCode": "DE",
			"market": "AT",
			"name": "Biral GmbH",
			"address1": "Kesselsgracht 7a",
			"address2": "52146 W\u00FCrselen",
			"contactNumber": "+43 1 310 21 20",
			"emailAddress": "info@biral.at",
			"website": "https://www.biral.at/"
		},
		{
			"country": "Italy",
			"countryCode": "IT",
			"languageCode": "IT",
			"market": "IT",
			"name": "Ufficio Biral Italia",
			"address1": "Strada degli Angariari 8",
			"address2": "RSM - 47891 Falciano",
			"contactNumber": "+378 0549 941537",
			"emailAddress": "",
			"website": "https://www.biralitalia.it/"
		},
		{
			"country": "Netherland",
			"countryCode": "NL",
			"languageCode": "NL",
			"market": "NL",
			"name": "Biral GmbH",
			"address1": "Kesselsgracht 7a",
			"address2": "52146 W\u00FCrselen",
			"contactNumber": "+31 33 455 94 44",
			"emailAddress": "info@biral.nl",
			"website": "https://www.biral.nl/"
		},
		{
			"country": "Lichtenstein",
			"countryCode": "LI",
			"languageCode": "DE",
			"market": "CH",
			"name": "Biral AG",
			"address1": "S\u00FCdstrasse 10",
			"address2": "CH-3110 Mu\u00FCnsingen",
			"contactNumber": "+41 31 720 90 00",
			"emailAddress": "info@biral.ch",
			"website": "https://www.biral.ch/"
		},
		{
			"country": "Spain",
			"countryCode": "ES",
			"languageCode": "ES",
			"market": "EU",
			"name": "Biral AG",
			"address1": "S\u00FCdstrasse 10",
			"address2": "CH-3110 M\u00FCnsingen",
			"contactNumber": "+41 31 720 90 00",
			"emailAddress": "info@biral.ch",
			"website": "https://www.biral.eu/"
		},
		{
			"country": "Other countries",
			"countryCode": "EU",
			"languageCode": "EN",
			"market": "EU",
			"name": "Biral AG",
			"address1": "S\u00FCdstrasse 10",
			"address2": "CH-3110 M\u00FCnsingen",
			"contactNumber": "+41 31 720 90 00",
			"emailAddress": "info@biral.ch",
			"website": "https://www.biral.eu/"
		}
	]
}